<?xml version="1.0" encoding="utf-8"?>
<!-- Generator: Adobe Illustrator 19.0.1, SVG Export Plug-In . SVG Version: 6.00 Build 0)  -->
<svg version="1.1" id="Слой_1" xmlns="http://www.w3.org/2000/svg" xmlns:xlink="http://www.w3.org/1999/xlink" x="0px" y="0px"  width="51px" height="51px"
	 viewBox="-279 370 53 53" style="enable-background:new -279 370 53 53;" xml:space="preserve">
<style type="text/css">
	.st0{fill:#d3a95c;stroke:#d3a95c;stroke-width:2;stroke-linecap:round;stroke-linejoin:round;}
	.st1{fill:none;stroke:#3D312B;stroke-width:2;stroke-linecap:round;stroke-linejoin:round;}
</style>
<circle class="st0" cx="-252.5" cy="396.5" r="25.5"/>
<g>
	<polyline class="st1" points="-249.8,386.1 -260.2,396.5 -249.8,406.9 	"/>
</g>
</svg>
