<?xml version="1.0" encoding="utf-8"?>
<!-- Generator: Adobe Illustrator 17.0.0, SVG Export Plug-In . SVG Version: 6.00 Build 0)  -->
<!DOCTYPE svg PUBLIC "-//W3C//DTD SVG 1.1//EN" "http://www.w3.org/Graphics/SVG/1.1/DTD/svg11.dtd">
<svg version="1.1" id="Слой_1" xmlns="http://www.w3.org/2000/svg" xmlns:xlink="http://www.w3.org/1999/xlink" x="0px" y="0px"
	 width="51px" height="51px" viewBox="0 0 53 53" enable-background="new 0 0 53 53" xml:space="preserve">
<circle fill="none" stroke="#FDD781" stroke-width="2" stroke-linecap="round" stroke-linejoin="round" cx="26.5" cy="26.5" r="25.5"/>
<g>
	<polyline fill="none" stroke="#3D312B" stroke-width="2" stroke-linecap="round" stroke-linejoin="round" points="22.137,37.481 
		32.535,27.084 22.137,16.686 	"/>
</g>
</svg>
