<?xml version="1.0" encoding="utf-8"?>
<!-- Generator: Adobe Illustrator 17.0.0, SVG Export Plug-In . SVG Version: 6.00 Build 0)  -->
<!DOCTYPE svg PUBLIC "-//W3C//DTD SVG 1.1//EN" "http://www.w3.org/Graphics/SVG/1.1/DTD/svg11.dtd">
<svg version="1.1" id="Слой_1" xmlns="http://www.w3.org/2000/svg" xmlns:xlink="http://www.w3.org/1999/xlink" x="0px" y="0px"
	 width="40px" height="40px" viewBox="0 0 53 53" enable-background="new 0 0 53 53" xml:space="preserve">
<circle fill="#fdd782" stroke="#FDD781" stroke-width="2" stroke-linecap="round" stroke-linejoin="round" cx="26.5" cy="26.5" r="25.5"/>
<g>
	<path fill="none" stroke="#FFFFFF" stroke-width="2" stroke-linecap="round" stroke-linejoin="round" d="M39.362,40.494v-3.11
		c0-3.435-2.785-6.22-6.22-6.22H20.703c-3.435,0-6.22,2.785-6.22,6.22v3.11"/>
	
		<circle fill="none" stroke="#FFFFFF" stroke-width="2" stroke-linecap="round" stroke-linejoin="round" cx="26.923" cy="18.726" r="6.22"/>
</g>
</svg>
